{
    "count": 1279,
    "next": "https://pokeapi.co/api/v2/pokemon?offset=42&limit=1",
    "previous": "https://pokeapi.co/api/v2/pokemon?offset=40&limit=1",
    "results": [
        {
            "name": "golbat",
            "url": "https://pokeapi.co/api/v2/pokemon/42/"
        }
    ]
}